…
Attaching package: ‘dplyr’

The following objects are masked from ‘package:stats’:

    filter, lag

The following objects are masked from ‘package:base’:

    intersect, setdiff, setequal, union

> filter(chhh,grade == "9")
# A tibble: 0 x 2
# ... with 2 variables: roll.no <chr>, grade <dbl>
> filter(chhh,grade <= "9" & grade > 8)
# A tibble: 24 x 2
   roll.no    grade
   <chr>      <dbl>
 1 15071A05G1  8.99
 2 15071A05F7  8.98
 3 15071A05F5  8.97
 4 15071A05D1  8.91
 5 15071A05E1  8.89
 6 15071A05G8  8.88
 7 15071A05H7  8.85
 8 15071A05G9  8.84
 9 16075A0533  8.84
10 15071A05E5  8.83
# ... with 14 more rows
…
 9 15071A05C2  9.31
10 15071A05E6  9.31
11 15071A05E8  9.31
12 15071A05C4  9.29
13 15071A05E4  9.27
14 15071A05H1  9.25
15 15071A05G7  9.22
16 15071A05D0  9.18
17 15071A05D7  9.11
18 15071A05H2  9.11
19 15071A05F2  9.04
> 
> bet8and9<-filter(chhh,grade >=8 & grade< 9 )
> bet8and9
# A tibble: 24 x 2
   roll.no    grade
   <chr>      <dbl>
 1 15071A05G1  8.99
 2 15071A05F7  8.98
 3 15071A05F5  8.97
 4 15071A05D1  8.91
 5 15071A05E1  8.89
 6 15071A05G8  8.88
 7 15071A05H7  8.85
 8 15071A05G9  8.84
 9 16075A0533  8.84
10 15071A05E5  8.83
# ... with 14 more rows
…
18 15071A05C9  8.54
> bet8.5and8<-filter(chhh,grade >=8 & grade< 8.5 )
> bet8.5and8
# A tibble: 6 x 2
  roll.no    grade
  <chr>      <dbl>
1 15071A05F6  8.45
2 15071A05E3  8.44
3 15071A05G0  8.37
4 15071A05C6  8.31
5 15071A05G3  8.23
6 15071A05F8  8.05
> less8<-filter(chhh,grade<8)
> less8
# A tibble: 25 x 2
   roll.no    grade
   <chr>      <dbl>
 1 15071A05D2  7.90
 2 15071A05H4  7.79
 3 15071A05H6  7.77
 4 15071A05F1  7.51
 5 16075A0525  7.50
 6 16075A0530  7.50
 7 16075A0529  7.40
 8 15071A05H9  7.37
 9 15071A05E7  7.33
10 16075A0536  7.30
# ... with 15 more rows
> groups<-rbind(less8,bet8.5and8)
> groups
# A tibble: 31 x 2
   roll.no    grade
   <chr>      <dbl>
 1 15071A05D2  7.90
 2 15071A05H4  7.79
 3 15071A05H6  7.77
 4 15071A05F1  7.51
 5 16075A0525  7.50
 6 16075A0530  7.50
 7 16075A0529  7.40
 8 15071A05H9  7.37
 9 15071A05E7  7.33
10 16075A0536  7.30
# ... with 21 more rows
…
> chroll<-as.character(chhh$roll.no)
> chroll
 [1] "15071A05G6"  "15071A05D9"  "15071A05E0"  "15071A05D5"  "15071A05C1"  "15071A05F3"  "15071A05G5" 
 [8] "15071A05D6"  "15071A05C2"  "15071A05E6"  "15071A05E8"  "15071A05C4"  "15071A05E4"  "15071A05H1" 
[15] "15071A05G7"  "15071A05D0"  "15071A05D7"  "15071A05H2"  "15071A05F2"  "15071A05G1"  "15071A05F7" 
[22] "15071A05F5"  "15071A05D1"  "15071A05E1"  "15071A05G8"  "15071A05H7"  "15071A05G9"  "16075A0533" 
[29] "15071A05E5"  "15071A05G2"  "15071A05I0"  "15071A05D8"  "15071A05F0"  "15071A05F4"  "15071A05H0" 
[36] "15071A05H5"  "15071A05C9"  "15071A05F6"  "15071A05E3"  "15071A05G0"  "15071A05C6"  "15071A05G3" 
[43] "15071A05F8"  "15071A05D2"  "15071A05H4"  "15071A05H6"  "15071A05F1"  "16075A0525"  "16075A0530" 
[50] "16075A0529"  "15071A05H9"  "15071A05E7"  "16075A0536"  "14071A05C1`" "15071A05H3"  "15071A05C7" 
[57] "15071A05H8"  "16075A0526"  "16075A0528"  "16075A0535"  "16075A0532"  "16075A0531"  "15071A05C5" 
[64] "15071A05C3"  "15071A05D3"  "15071A05C8"  "15071A05F9"  "15071A05D4" 
> chhh
# A tibble: 68 x 2
   roll.no    grade
   <chr>      <dbl>
 1 15071A05G6  9.56
 2 15071A05D9  9.53
 3 15071A05E0  9.47
 4 15071A05D5  9.43
 5 15071A05C1  9.40
 6 15071A05F3  9.40
 7 15071A05G5  9.37
 8 15071A05D6  9.34
 9 15071A05C2  9.31
10 15071A05E6  9.31
# ... with 58 more rows
…
 [5,] "15071A05C1" "15071A05F5" "15071A05E3" "15071A05C7" 
 [6,] "15071A05F3" "15071A05D1" "15071A05G0" "15071A05H8" 
 [7,] "15071A05G5" "15071A05E1" "15071A05C6" "16075A0526" 
 [8,] "15071A05D6" "15071A05G8" "15071A05G3" "16075A0528" 
 [9,] "15071A05C2" "15071A05H7" "15071A05F8" "16075A0535" 
[10,] "15071A05E6" "15071A05G9" "15071A05D2" "16075A0532" 
[11,] "15071A05E8" "16075A0533" "15071A05H4" "16075A0531" 
[12,] "15071A05C4" "15071A05E5" "15071A05H6" "15071A05C5" 
[13,] "15071A05E4" "15071A05G2" "15071A05F1" "15071A05C3" 
[14,] "15071A05H1" "15071A05I0" "16075A0525" "15071A05D3" 
[15,] "15071A05G7" "15071A05D8" "16075A0530" "15071A05C8" 
[16,] "15071A05D0" "15071A05F0" "16075A0529" "15071A05F9" 
[17,] "15071A05D7" "15071A05F4" "15071A05H9" "15071A05D4" 
> less8[sample(nrow(less8)),]
# A tibble: 25 x 2
   roll.no     grade
   <chr>       <dbl>
 1 15071A05C8   6.20
 2 15071A05H3   7.23
 3 16075A0535   6.71
 4 14071A05C1`  7.24
 5 15071A05C3   6.40
 6 15071A05H4   7.79
 7 15071A05H6   7.77
 8 16075A0526   6.80
 9 16075A0536   7.30
10 16075A0529   7.40
# ... with 15 more rows
> less8[sample(nrow(less8)),]
# A tibble: 25 x 2
   roll.no     grade
   <chr>       <dbl>
 1 15071A05C7   7.00
 2 16075A0530   7.50
 3 15071A05C5   6.44
 4 15071A05H3   7.23
 5 15071A05D2   7.90
 6 15071A05F9   6.16
 7 16075A0529   7.40
 8 14071A05C1`  7.24
 9 16075A0525   7.50
10 15071A05C3   6.40
# ... with 15 more rows
> less8[sample(nrow(less8)),]
# A tibble: 25 x 2
   roll.no    grade
   <chr>      <dbl>
 1 15071A05C7  7.00
 2 15071A05H8  6.90
 3 15071A05D2  7.90
 4 15071A05F1  7.51
 5 16075A0531  6.50
 6 15071A05H4  7.79
 7 16075A0525  7.50
 8 16075A0532  6.63
 9 16075A0536  7.30
10 15071A05D3  6.25
# ... with 15 more rows
> less8[sample(nrow(less8)),]
# A tibble: 25 x 2
   roll.no    grade
   <chr>      <dbl>
 1 16075A0531  6.50
 2 16075A0526  6.80
 3 15071A05H9  7.37
 4 15071A05E7  7.33
 5 16075A0525  7.50
 6 16075A0532  6.63
 7 15071A05H3  7.23
 8 15071A05H8  6.90
 9 16075A0536  7.30
10 15071A05C3  6.40
# ... with 15 more rows
> rbind(great9[sample(nrow(great9)),],bet8.5and9[sample(nrow(bet8.5and9)),],bet8.5and8[sample(nrow(bet8.5and8)),],less8[sample(nrow(less8)),])
# A tibble: 68 x 2
   roll.no    grade
   <chr>      <dbl>
 1 15071A05E6  9.31
 2 15071A05F2  9.04
 3 15071A05G7  9.22
 4 15071A05C4  9.29
 5 15071A05C2  9.31
 6 15071A05D9  9.53
 7 15071A05H1  9.25
 8 15071A05D7  9.11
 9 15071A05E4  9.27
10 15071A05E0  9.47
# ... with 58 more rows
> finalchhh<-rbind(great9[sample(nrow(great9)),],bet8.5and9[sample(nrow(bet8.5and9)),],bet8.5and8[sample(nrow(bet8.5and8)),],less8[sample(nrow(less8)),])
> finalchhh
# A tibble: 68 x 2
   roll.no    grade
   <chr>      <dbl>
 1 15071A05D5  9.43
 2 15071A05G5  9.37
 3 15071A05F2  9.04
 4 15071A05H2  9.11
 5 15071A05E6  9.31
 6 15071A05G7  9.22
 7 15071A05E8  9.31
 8 15071A05C1  9.40
 9 15071A05E4  9.27
10 15071A05G6  9.56
# ... with 58 more rows
…
